<?xml version="1.0" encoding="UTF-8" standalone="no"?>
<!-- Created with Inkscape (http://www.inkscape.org/) -->

<svg
   version="1.1"
   id="svg1"
   width="500"
   height="500"
   viewBox="0 0 500 500"
   sodipodi:docname="swap.svg"
   xml:space="preserve"
   inkscape:version="1.3.2 (1:1.3.2+202311252150+091e20ef0f)"
   xmlns:inkscape="http://www.inkscape.org/namespaces/inkscape"
   xmlns:sodipodi="http://sodipodi.sourceforge.net/DTD/sodipodi-0.dtd"
   xmlns="http://www.w3.org/2000/svg"
   xmlns:svg="http://www.w3.org/2000/svg"><defs
     id="defs1" /><sodipodi:namedview
     id="namedview1"
     pagecolor="#ffffff"
     bordercolor="#666666"
     borderopacity="1.0"
     inkscape:showpageshadow="2"
     inkscape:pageopacity="0.0"
     inkscape:pagecheckerboard="0"
     inkscape:deskcolor="#d1d1d1"
     inkscape:zoom="0.47266902"
     inkscape:cx="310.99986"
     inkscape:cy="111.07138"
     inkscape:window-width="1280"
     inkscape:window-height="969"
     inkscape:window-x="0"
     inkscape:window-y="50"
     inkscape:window-maximized="1"
     inkscape:current-layer="g1" /><g
     inkscape:groupmode="layer"
     inkscape:label="Image"
     id="g1"><rect
       style="opacity:1;fill:#e6e6e6;stroke:#333333;stroke-width:0.626943;stroke-dasharray:none;paint-order:stroke fill markers;fill-opacity:1"
       id="rect29"
       width="500.42059"
       height="498.93155"
       x="1.036284"
       y="1.7712364"
       inkscape:export-filename="./swap.png"
       inkscape:export-xdpi="47.899647"
       inkscape:export-ydpi="47.899647" /><g
       id="g29"
       transform="matrix(1.1757511,0,0,1.1757511,-18.030861,-39.933167)"><path
         style="fill:#333333;stroke:none;stroke-width:1.7032"
         d="m 117.70338,43.139205 c -6.6763,16.220072 9.03148,11.099099 16.85456,20.904907 17.34759,21.744274 48.26413,24.866424 42.65795,60.089648 -13.57927,-5.162 -8.12607,-17.15357 -11.82295,-29.898594 -7.32404,10.720654 -7.51046,43.436344 6.8128,47.689564 l 6.81279,-17.03199 c 3.24698,15.53205 17.25235,31.66353 14.92138,47.68956 -1.74453,11.99418 -17.61327,28.34175 -30.39605,22.07327 -16.21406,-7.95113 -17.09521,-29.85021 -32.21489,-37.40206 0.81043,15.58936 12.51359,36.14518 25.54798,44.78915 5.96416,3.95522 14.125,3.4057 19.23195,8.54884 8.81784,8.8803 13.26969,23.19194 14.83202,35.22834 h 3.4064 l 22.14158,-15.32878 -27.25118,-1.7032 c -0.45686,-7.17348 -7.37137,-16.99999 -5.83635,-23.55565 1.29884,-5.54699 8.64373,-9.47711 11.91057,-13.9213 4.39384,-5.97736 5.44836,-14.85048 5.6287,-22.13501 0.43113,-17.41534 -8.20569,-25.99558 -14.43776,-40.87676 -4.99606,-11.92976 -2.84095,-26.03543 -9.67642,-37.470374 C 169.42073,78.439905 157.92254,75.482079 146.73135,68.010368 136.37716,61.097459 127.74862,50.736238 117.70338,43.139205 m -1.7032,15.328788 -17.031992,10.219192 c 0.0937,8.486289 1.107732,18.696761 8.516002,23.844781 -0.35686,-12.387299 -3.80711,-18.356087 8.51599,-25.54798 l 1.7032,6.812795 h 1.7032 V 58.467993 h -3.4064 m 10.21919,32.360773 v 5.1096 h 3.4064 v -5.1096 h -3.4064 m 13.62559,160.100674 c 2.03141,12.73774 12.17583,9.3025 22.14158,8.51599 -1.36475,-21.42893 -13.65461,-39.35956 -22.7737,-58.06119 -9.76255,-20.02123 -14.68526,-37.97211 -18.74176,-59.45951 -3.19209,-16.90851 -8.21611,-33.07099 0.6387,-49.392764 -12.30359,0.2976 -26.069712,13.058594 -22.163932,26.955494 1.728032,6.14838 8.380302,9.49108 10.219192,15.69151 2.11789,7.14105 -2.85831,14.55153 -0.65447,21.5883 2.38395,7.61185 9.90429,13.83947 13.6177,20.92463 6.67668,12.73902 11.40941,26.47235 18.29494,39.17357 5.52411,10.18989 23.94006,39.77532 -0.57825,34.06397 m 49.39276,110.70791 c -4.57714,-0.73364 -10.38759,-3.11656 -14.62174,-0.2681 -2.41598,1.62531 -23.46367,32.41499 -19.34104,8.83405 0.39762,-2.27438 1.14374,-4.59303 1.60201,-6.86275 l -10.21919,15.32879 5.10959,5.10959 -6.81279,-1.7032 -5.1096,10.2192 v -11.92239 h -3.4064 c -3.72881,15.09522 -10.29089,38.03387 -25.61631,45.70644 -9.00951,4.51056 -20.733122,-1.85044 -27.182853,7.09271 24.575103,7.26404 57.814253,1.7032 83.456743,1.7032 0.84588,-16.51651 -1.41926,-35.19047 3.41428,-51.09596 1.67675,-5.51761 5.443,-16.33304 13.36669,-13.06835 6.6306,2.73188 4.66635,11.07694 3.79408,16.47475 -2.51084,15.53774 -2.86814,31.97033 -3.54306,47.68956 h 115.8175 v -57.90875 c 18.53549,9.06498 12.13737,40.51456 11.92239,57.90875 7.30284,-0.54827 13.05747,-4.85267 20.43968,-5.07016 18.21885,-0.53677 54.60051,11.17821 68.12665,-3.44583 l -47.68956,-6.8128 c 4.35219,-18.33989 -14.69423,-67.78207 -34.06397,-73.23754 l 13.62559,28.95438 -13.62559,-1.7032 -1.7032,5.1096 h -3.4064 l -12.59789,-15.54826 -1.0277,-45.76689 -25.14321,-4.1003 10.48203,-43.58927 -4.074,-81.75353 -5.1096,-1.7032 v -1.7032 c 9.40658,-5.39035 11.29211,-27.35359 10.21919,-37.47037 l 6.8128,-1.7032 c 5.40266,29.10085 13.78991,66.07333 6.81279,95.37913 l 6.8128,3.40639 c 9.37052,-27.44817 38.90775,-72.58768 71.50278,-43.92043 10.98732,9.66332 5.88649,21.94878 13.65715,30.29485 v 1.70319 l -3.4064,3.4064 h -1.7032 c -7.67744,-12.68459 -17.99523,-24.45226 -30.65757,-32.36077 l 18.73518,37.47037 -32.36077,-17.03199 20.43838,23.84478 c -12.0239,14.24709 -22.127,-10.69714 -33.35038,0.54276 -10.52263,10.53818 -0.35781,32.86012 0.81219,45.4436 1.69568,18.23752 -6.09492,32.15094 -8.33857,49.39277 10.17017,-3.01995 12.19667,-14.20862 13.51518,-23.84479 2.89873,-21.18472 -6.03566,-45.15295 -1.59279,-64.72154 7.76873,3.13409 16.87503,8.81342 25.5217,7.53955 7.61433,-1.12178 11.28505,-8.08921 17.13186,-12.26671 5.77033,-4.12283 14.65103,-5.06305 18.90208,-10.98933 11.64984,-16.24073 -7.0273,-42.24605 -20.68017,-50.04328 -20.04869,-11.44989 -33.11199,-3.98991 -46.40692,11.25741 -2.89697,3.32241 -11.63674,15.88471 -16.3565,9.57787 -7.17479,-9.58743 -2.16829,-21.34648 -2.39973,-31.71945 -0.2507,-11.23517 -5.87224,-20.06266 -7.78793,-30.65758 -0.96771,-5.35204 2.16289,-10.01905 1.96213,-15.32879 -0.56505,-14.94435 -12.64139,-34.085584 -27.79528,-37.973674 -11.52895,-2.95805 -34.49531,26.310874 -34.30448,36.270484 0.15533,8.10954 3.84211,13.94691 1.03691,22.43071 -2.59515,7.8485 -11.30677,15.62699 -11.96444,23.7081 -0.56536,6.94696 6.98127,12.29318 4.94399,19.30554 -3.0686,10.56216 -11.67459,18.56428 -13.65449,29.93477 -4.90833,28.1886 2.0925,58.97131 -6.20431,86.67126 -3.3512,11.18833 -19.01868,2.20762 -24.96579,9.73557 -5.96255,7.54749 -1.75052,30.45127 -1.75052,39.84906 m 81.75354,-158.39747 -8.516,-1.7032 c 3.68877,5.85241 10.17932,11.13369 12.67279,17.54322 11.86421,30.49735 -1.20215,63.079 -9.13759,93.16469 -3.35742,12.72904 -18.98415,47.06662 -37.01303,30.11613 -16.1359,-15.17072 -2.28934,-62.44149 -2.28934,-82.91529 10.06224,7.02231 3.24926,21.86606 5.1096,32.36078 11.71789,-5.91 9.39387,-20.10587 4.93086,-30.65758 -8.88417,-21.00439 -18.85131,-51.57936 12.10112,-61.31515 -4.61006,-8.69183 -15.46642,-18.05789 -10.16532,-28.95438 3.90128,-8.0191 15.93212,-13.12655 17.43808,-22.14158 1.27829,-7.65206 -9.44224,-13.62842 -6.17014,-21.60012 2.14239,-5.21948 9.83051,-3.29863 13.61902,-6.67875 4.9412,-4.40857 1.27101,-12.05484 5.6182,-16.64691 6.10205,-6.445794 20.05791,6.98448 22.15078,12.63862 5.23437,14.14115 -5.87421,22.51496 -9.81707,33.72752 -5.86789,16.6869 -8.3198,35.5736 -10.53196,53.062 m -158.39748,-97.08232 -1.7032,18.73518 c -6.95666,-5.79976 -6.78583,-10.69273 -3.40639,-18.73518 h 5.10959 m 151.58468,3.4064 -5.10959,5.10959 5.10959,-5.10959 m -137.95909,1.70319 c 2.35578,7.46478 8.16718,7.15347 13.05918,12.43758 5.53198,5.97543 -0.45082,15.10234 5.23048,20.52378 5.48306,5.23224 9.66969,-2.64216 9.61204,-7.43964 -0.18243,-15.18192 -13.96686,-24.87419 -27.9017,-25.52172 m 172.02306,18.73519 -1.70319,1.70319 1.70319,-1.70319 m -183.94545,13.62558 1.7032,8.516 h -3.4064 l 1.7032,-8.516 m 6.8128,117.52071 5.55116,63.01835 14.88722,52.79916 h 1.7032 l 8.51599,-40.87677 h -1.7032 l -6.81279,15.32879 h -1.7032 L 124.51617,247.52304 c -4.63144,1.86039 -10.25259,7.86704 -15.26308,7.71564 -13.113782,-0.39621 7.25331,-13.28338 10.15349,-14.52843 -6.66862,-11.36267 -24.370512,-2.2158 -34.063983,0 2.60957,-14.62881 9.913251,-16.49272 21.881373,-22.16918 2.06201,-0.97801 5.16483,-3.1517 3.36697,-5.8232 -5.03701,-7.48462 -24.807123,8.63232 -33.764334,-0.962 22.908242,-9.44654 42.167214,-16.54239 49.392764,15.32879 h 5.1096 v 10.21919 h 3.4064 c -1.23321,-12.05258 -7.45126,-32.11279 -17.329,-39.76495 -12.25231,-9.49173 -40.387541,-0.33838 -45.694623,14.28532 -2.763354,7.61447 5.208535,11.03088 7.429166,17.25277 1.675164,4.69361 -0.860678,9.91674 1.700554,14.44696 3.17162,5.60982 9.553811,3.17278 13.700501,6.87457 10.935882,9.76251 8.534932,19.81232 26.567812,10.75011 m 15.32878,-20.43838 v 5.10959 h 1.7032 l -1.7032,-5.10959 m 57.90876,6.81279 1.7032,6.8128 h 1.70319 v -6.8128 h -3.40639 m 61.31515,25.54798 18.73518,-18.73518 c -13.0239,0.71307 -40.37308,26.7249 -22.84338,39.09343 10.11354,7.13582 14.29438,-14.74134 4.1082,-20.35825 m 39.17357,51.09596 -5.1096,100.48872 h -95.37912 l 1.7032,-98.78552 c 5.03145,0 13.48277,-1.53053 17.71406,1.75051 11.07355,8.58675 5.81479,25.96738 24.8659,28.90706 l -9.70402,25.00654 15.48912,5.95595 4.43409,23.53987 c 10.73935,-5.41649 5.55558,-12.70235 9.54369,-21.76046 3.68967,-8.38031 20.29891,-16.76162 0.67551,-20.8195 0,-27.74702 5.78886,-44.26331 35.76717,-44.28317 m -45.98637,39.17357 -1.70319,8.51599 -1.7032,-8.51599 h 3.40639 m 81.75354,18.73518 v 5.1096 h -1.7032 l 1.7032,-5.1096 m 8.51599,3.4064 11.92239,34.06397 h -30.65757 l -1.7032,-30.65757 c 8.70443,3.21281 12.38164,-0.0785 20.43838,-3.4064 m -177.13266,1.7032 -2.73089,34.64618 -19.41069,-3.44847 -17.03199,6.27266 35.76718,-37.47037 h 3.40639"
         id="path6"
         sodipodi:nodetypes="csccccsscssccccssssssccccccccccccccccsscsssssccsscccccccsccsssccccsccccccccccccccccccsccccccccsscscssssssssssssssssscccsssccscssssssscccccccccssscccccccccccccccccsccsscccccsssssccccccccccccscccccsccccsccccccccccccccccccccc" /><path
         style="fill:#333333;stroke:#000000;stroke-width:0.6;stroke-linecap:butt;stroke-linejoin:miter;stroke-dasharray:none;stroke-opacity:1"
         d="m 119.48003,55.08403 -0.28615,4.229983 h -0.16596"
         id="path7" /><path
         style="fill:#333333;stroke:#000000;stroke-width:1px;stroke-linecap:butt;stroke-linejoin:miter;stroke-opacity:1"
         d="m 106.83202,91.710623 2.71755,5.40763 v 0 0"
         id="path8" /><path
         style="fill:#333333;stroke:#000000;stroke-width:1px;stroke-linecap:butt;stroke-linejoin:miter;stroke-opacity:1"
         d="m 213.64238,230.61509 9.91379,-1.08954 v 0"
         id="path9" /><path
         style="fill:#333333;stroke:#000000;stroke-width:1px;stroke-linecap:butt;stroke-linejoin:miter;stroke-opacity:1"
         d="m 134.2361,235.88128 6.19595,16.6558"
         id="path10" /><path
         style="fill:#333333;stroke:#000000;stroke-width:1px;stroke-linecap:butt;stroke-linejoin:miter;stroke-opacity:1"
         d="m 141.69813,375.31423 -2.06462,5.43924"
         id="path11" /><path
         style="fill:#333333;stroke:#000000;stroke-width:1px;stroke-linecap:butt;stroke-linejoin:miter;stroke-opacity:1"
         d="m 322.82596,341.36979 -2.68438,5.67815"
         id="path12" /><path
         style="opacity:1;fill:#00ff00;stroke:#333333;stroke-width:0.448796;stroke-dasharray:none;paint-order:stroke fill markers"
         d="m 307.23481,370.45073 -6.16739,-7.66001 -0.002,-6.73886 c -0.001,-3.70637 -0.22116,-14.00169 -0.48923,-22.87848 l -0.48739,-16.13962 -10.91767,-1.6911 c -6.00472,-0.9301 -11.609,-1.91389 -12.45396,-2.18622 -1.49594,-0.48212 -1.40155,-1.04502 3.59524,-21.43894 l 5.13151,-20.94382 -1.57922,-34.03371 c -0.86857,-18.71854 -1.77927,-37.46811 -2.02378,-41.66571 l -0.44456,-7.632 -2.12387,-0.46648 c -3.12973,-0.6874 -3.31876,-1.70123 -0.80976,-4.34298 4.98401,-5.24771 7.40743,-13.22435 8.14234,-26.80034 l 0.47238,-8.72612 2.88631,-0.73262 c 2.6373,-0.66942 2.91761,-0.59417 3.24912,0.87219 3.2456,14.35624 7.61814,43.33446 8.62483,57.15955 0.85619,11.75828 0.13808,26.93064 -1.57591,33.29591 -0.43387,1.61127 -0.68258,3.02252 -0.55269,3.13612 0.42261,0.36962 6.52533,3.38241 6.85142,3.38241 0.17431,0 1.08575,-1.93543 2.02541,-4.30096 6.92714,-17.43843 18.58442,-33.93432 29.46993,-41.70206 13.45914,-9.60424 27.03308,-9.02894 39.25647,1.66379 4.78298,4.18403 7.06298,8.59794 8.9812,17.38688 0.821,3.76169 2.40047,8.50726 3.50993,10.54571 l 2.01721,3.70627 -1.74947,1.86222 c -2.29981,2.44804 -3.12567,2.35071 -4.82588,-0.56875 -3.00152,-5.15394 -10.17324,-13.88884 -15.84549,-19.29928 -6.32504,-6.03307 -12.98106,-11.01452 -12.98106,-9.71517 0,0.43459 3.89051,8.56554 8.64558,18.06879 4.75507,9.50325 8.53957,17.38465 8.40999,17.51423 -0.12958,0.12957 -6.91067,-3.29945 -15.06909,-7.62005 -8.15843,-4.3206 -14.97409,-7.71506 -15.14592,-7.54323 -0.17183,0.17183 4.10589,5.45143 9.50605,11.73245 l 9.81845,11.42002 -1.8725,1.8725 c -1.23551,1.23552 -2.98386,1.99304 -5.13951,2.22684 -2.7921,0.30283 -4.23875,-0.14402 -9.95176,-3.07393 -10.28603,-5.27519 -15.18567,-4.31154 -18.85751,3.70881 -2.76412,6.03763 -2.53008,13.41041 0.91841,28.93208 3.68997,16.60852 3.44203,22.47579 -1.85794,43.96615 -2.07991,8.43363 -3.96533,16.09978 -4.18983,17.03588 -0.22449,0.93611 -1.02504,2.31889 -1.779,3.07284 -1.32911,1.32911 -1.16916,1.79897 5.25555,15.43893 3.64451,7.73747 6.54198,14.13827 6.43881,14.22401 -0.10316,0.0857 -2.03885,-0.11383 -4.30153,-0.44349 -7.72405,-1.12534 -8.74092,-0.9629 -9.61183,1.53539 -1.4557,4.17583 -3.56006,3.07999 -10.40055,-5.41604 z"
         id="path13" /><path
         style="font-variation-settings:normal;opacity:1;vector-effect:none;fill:#00ff00;fill-opacity:1;stroke:#333333;stroke-width:0.448796;stroke-linecap:butt;stroke-linejoin:miter;stroke-miterlimit:4;stroke-dasharray:none;stroke-dashoffset:0;stroke-opacity:1;-inkscape-stroke:none;paint-order:stroke fill markers;stop-color:#000000;stop-opacity:1"
         d="m 320.51525,417.35151 c 0,-1.04439 -0.35886,-7.64188 -0.79746,-14.66108 -0.4386,-7.0192 -0.68877,-12.87087 -0.55592,-13.00371 0.13284,-0.13285 1.41734,0.005 2.85444,0.30532 3.35828,0.70285 8.19445,-0.19627 13.07567,-2.43097 l 3.86688,-1.77031 5.49084,15.79483 c 3.01996,8.68715 5.6381,16.21557 5.81809,16.72982 0.25475,0.72784 -3.00485,0.93499 -14.71264,0.93499 h -15.0399 z"
         id="path14" /><path
         style="font-variation-settings:normal;opacity:1;vector-effect:none;fill:#00ff00;fill-opacity:1;stroke:#333333;stroke-width:0.448796;stroke-linecap:butt;stroke-linejoin:miter;stroke-miterlimit:4;stroke-dasharray:none;stroke-dashoffset:0;stroke-opacity:1;-inkscape-stroke:none;paint-order:stroke fill markers;stop-color:#000000;stop-opacity:1"
         d="m 139.89705,385.72627 c 0,-4.07324 1.23959,-8.34803 2.42074,-8.34803 0.37966,0 0.80664,-0.18826 0.94885,-0.41835 0.1422,-0.23009 2.05882,-9.09597 4.25915,-19.70195 2.20032,-10.60598 4.10252,-19.71423 4.2271,-20.24057 0.17209,-0.72712 -0.0442,-0.91767 -0.90048,-0.79337 -0.89189,0.12948 -1.81548,1.70827 -4.4275,7.56837 -1.81528,4.07261 -3.61117,7.47045 -3.99085,7.55073 -0.52036,0.11004 -2.75933,-12.52318 -9.09263,-51.30439 -4.62125,-28.29771 -8.55885,-51.75144 -8.7502,-52.11939 -0.24716,-0.47525 -1.77639,0.24692 -5.27996,2.49342 -6.06994,3.89206 -8.89269,5.0303 -11.3374,4.57167 -5.27971,-0.99048 -2.77201,-4.9178 7.46103,-11.68474 2.10903,-1.39466 3.83461,-2.74966 3.83461,-3.01111 0,-0.88596 -2.64026,-3.12156 -4.89573,-4.14537 -4.3584,-1.97839 -10.36852,-1.32861 -22.381283,2.41973 -3.220856,1.005 -5.995931,1.82728 -6.166836,1.82728 -0.54507,0 1.067926,-5.31325 2.504192,-8.24887 2.003653,-4.09532 5.546618,-6.89199 14.201747,-11.21026 7.80017,-3.89171 9.27998,-5.18318 8.55531,-7.46641 -1.06377,-3.35165 -5.00653,-3.57823 -15.200293,-0.87352 -8.176416,2.16946 -13.285395,2.47026 -16.236555,0.95599 -0.991256,-0.50863 -1.791176,-1.16278 -1.777602,-1.45369 0.03435,-0.73606 10.401283,-4.81488 16.502378,-6.49277 7.220432,-1.98572 13.905792,-1.99213 18.135362,-0.0174 5.64573,2.63595 10.11893,8.95595 12.46925,17.61729 l 1.00468,3.70238 2.4419,0.16044 2.4419,0.16044 0.15104,5.12459 0.15104,5.12459 1.51938,0.26854 c 1.20706,0.21334 1.71742,0.7578 2.48278,2.64864 0.52986,1.30906 0.97669,3.12817 0.99295,4.04248 0.0162,0.9143 0.32791,1.77686 0.69258,1.9168 0.36466,0.13993 0.98739,1.17694 1.38385,2.30446 2.65217,7.54273 5.25002,10.94014 8.8872,11.62248 2.49722,0.46848 14.04,-0.2248 14.70076,-0.88296 0.81833,-0.8151 -1.15956,-11.09514 -3.55448,-18.47435 -1.60479,-4.94467 -4.45011,-11.16652 -11.28659,-24.6803 -12.88523,-25.47045 -16.26112,-33.61334 -20.85528,-50.30448 -2.94376,-10.69507 -8.85685,-40.36452 -9.45835,-47.45819 -0.77272,-9.11286 0.27447,-16.28244 3.41566,-23.385234 l 1.28923,-2.91517 -2.47848,0.371671 c -2.56343,0.38441 -7.351,2.084728 -8.4589,3.0042 -0.45596,0.378415 -0.94134,-0.08271 -1.74477,-1.657555 -0.8996,-1.763369 -1.17443,-3.539082 -1.43296,-9.258691 -0.31414,-6.949729 -0.29382,-7.130144 1.13071,-10.041779 1.0338,-2.113017 2.27654,-3.588504 4.32523,-5.135278 1.58105,-1.193704 2.96824,-2.076772 3.08264,-1.96237 0.1144,0.114401 0.53842,1.516318 0.94226,3.115372 0.58266,2.307148 0.9736,2.942262 1.89362,3.076383 1.15438,0.168287 1.15937,0.130317 1.15937,-8.822211 v -8.991226 l 3.30474,1.342838 c 6.0931,2.475846 8.43537,3.932858 11.1684,6.947285 5.25254,5.79336 8.63563,8.718672 19.68246,17.019154 6.57239,4.938435 12.56647,9.908588 14.60402,12.10934 3.89004,4.2016 6.80983,9.332711 8.05329,14.152481 0.93478,3.6233 1.17631,15.25528 0.32765,15.77978 -0.94669,0.58508 -4.78021,-1.85172 -6.37373,-4.05151 -2.0751,-2.86458 -2.49295,-4.5892 -3.39613,-14.01676 -0.79391,-8.287039 -1.21756,-10.746187 -1.85126,-10.746187 -0.59534,0 -2.58436,4.670085 -3.60426,8.462577 -1.32372,4.92223 -1.31899,20.52211 0.008,25.32415 1.24911,4.52132 3.23105,8.37406 5.52541,10.74096 1.70905,1.7631 4.69954,3.52617 5.11111,3.0133 0.0898,-0.11188 1.48225,-3.52624 3.09438,-7.58747 1.61213,-4.06123 3.13761,-7.4471 3.38995,-7.52416 0.25235,-0.0771 0.99291,1.5294 1.64568,3.56991 0.65279,2.04051 3.18668,8.05854 5.63088,13.37341 5.55365,12.07627 7.22086,17.17923 7.59159,23.23609 0.51203,8.36523 -2.68593,15.58234 -9.82482,22.17252 -4.63036,4.27446 -9.34292,6.43711 -14.10492,6.47292 -3.24616,0.0244 -4.1177,-0.19703 -7.07281,-1.79707 -5.97724,-3.23639 -9.59614,-7.71006 -17.74572,-21.93722 -1.43234,-2.50051 -3.69949,-5.90587 -5.0381,-7.56747 -2.39788,-2.97645 -7.14978,-7.00413 -8.26968,-7.00933 -0.841,-0.004 0.0192,5.6922 1.67695,11.10447 2.96951,9.69495 8.74488,19.53319 15.80584,26.925 5.58577,5.84749 9.10031,8.06898 16.35065,10.33498 7.42893,2.32182 10.19005,4.07766 13.53085,8.60448 5.28036,7.15498 8.93591,16.11165 10.90894,26.72862 l 0.95834,5.15689 h 1.62403 c 1.22849,0 4.2618,-1.83064 12.45464,-7.5165 9.37271,-6.50471 11.18664,-7.56371 13.47554,-7.8672 1.45471,-0.19288 2.66949,-0.3211 2.69953,-0.28494 0.03,0.0362 -0.15633,1.96983 -0.41411,4.29704 -0.2578,2.32721 -0.46703,12.91866 -0.46497,23.53656 0.005,27.94751 -0.8307,39.31509 -3.73469,50.77548 -1.87212,7.38819 -3.4646,8.44047 -13.60017,8.98675 -9.18578,0.49508 -11.17923,1.33119 -13.08176,5.48687 -2.5059,5.47362 -2.784,12.4699 -1.21802,30.64252 0.32087,3.72354 0.49416,6.8593 0.3851,6.96836 -0.10906,0.10907 -1.62439,-0.13713 -3.36741,-0.54709 -3.8474,-0.90494 -7.95898,-0.93692 -9.88671,-0.0769 -0.78567,0.35051 -4.15046,3.86972 -7.47731,7.82045 -3.43795,4.08268 -7.14105,7.90663 -8.57927,8.85927 -2.79667,1.85243 -2.82477,1.86096 -3.89595,1.18303 -1.01126,-0.64002 -0.90253,-6.03064 0.218,-10.80847 0.46854,-1.99779 0.75745,-3.72677 0.64203,-3.8422 -0.26454,-0.26453 -9.89141,14.21297 -9.89141,14.87532 0,0.26855 0.89254,1.42593 1.98342,2.57194 1.21222,1.27349 1.60555,1.95009 1.01159,1.74012 -0.53451,-0.18895 -1.88612,-0.48975 -3.00358,-0.66843 l -2.03175,-0.3249 -1.8955,3.76396 c -1.04253,2.07018 -2.13052,3.76396 -2.41776,3.76396 -0.2955,0 -0.52226,-1.65732 -0.52226,-3.81693 z m 58.18024,-134.75784 v -3.70238 h -1.9173 c -1.87432,0 -1.90972,0.0379 -1.57928,1.69014 0.89834,4.49169 1.4246,5.71462 2.45915,5.71462 0.93184,0 1.03743,-0.37686 1.03743,-3.70238 z M 151.12307,144.8106 c 2.70187,-2.43475 3.73312,-7.94061 2.494,-13.31549 -2.07703,-9.00935 -10.3461,-16.69065 -20.83922,-19.35796 -3.21317,-0.81677 -6.6325,-1.0625 -6.6325,-0.47664 0,0.17856 0.53246,1.27205 1.18325,2.42996 0.80387,1.43031 2.54205,3.01072 5.42134,4.92928 4.79086,3.1923 7.35109,5.64248 8.17249,7.82117 0.30874,0.81892 0.56268,3.67504 0.5643,6.34694 0.003,5.72461 0.59093,8.19231 2.48657,10.44514 2.27811,2.70739 4.96165,3.14938 7.14977,1.1776 z M 129.84773,93.35285 v -2.644556 h -1.85119 -1.85119 v 2.644556 2.644557 h 1.85119 1.85119 z"
         id="path22" /><path
         style="font-variation-settings:normal;opacity:1;vector-effect:none;fill:#00ff00;fill-opacity:1;stroke:#333333;stroke-width:0.448796;stroke-linecap:butt;stroke-linejoin:miter;stroke-miterlimit:4;stroke-dasharray:none;stroke-dashoffset:0;stroke-opacity:1;-inkscape-stroke:none;paint-order:stroke fill markers;stop-color:#000000;stop-opacity:1"
         d="m 107.935,121.59039 c -1.02441,-1.34163 -2.01793,-3.26749 -2.20782,-4.27969 -0.44399,-2.3667 0.0364,-6.38906 1.05395,-8.82435 0.75132,-1.79817 0.94013,-1.91072 3.20544,-1.91072 1.3239,0 2.40002,0.17851 2.39137,0.39669 -0.009,0.21817 -0.35858,3.84783 -0.77765,8.06589 -0.41906,4.21807 -0.76901,7.96673 -0.77765,8.33036 -0.0301,1.26562 -1.03694,0.64561 -2.88764,-1.77818 z"
         id="path23" /><path
         style="font-variation-settings:normal;opacity:1;vector-effect:none;fill:#00ff00;fill-opacity:1;stroke:#333333;stroke-width:0.448796;stroke-linecap:butt;stroke-linejoin:miter;stroke-miterlimit:4;stroke-dasharray:none;stroke-dashoffset:0;stroke-opacity:1;-inkscape-stroke:none;paint-order:stroke fill markers;stop-color:#000000;stop-opacity:1"
         d="m 112.72235,151.96284 c -0.004,-0.36286 1.37187,-7.04943 1.47435,-7.16455 0.0604,-0.0679 0.14873,-0.0845 0.19624,-0.037 0.0746,0.0746 1.50476,6.97617 1.50476,7.2617 0,0.0578 -0.71403,0.10515 -1.58674,0.10515 -1.18023,0 -1.58721,-0.0423 -1.58861,-0.16528 z"
         id="path24" /><path
         style="font-variation-settings:normal;opacity:1;vector-effect:none;fill:#00ff00;fill-opacity:1;stroke:#333333;stroke-width:0.448796;stroke-linecap:butt;stroke-linejoin:miter;stroke-miterlimit:4;stroke-dasharray:none;stroke-dashoffset:0;stroke-opacity:1;-inkscape-stroke:none;paint-order:stroke fill markers;stop-color:#000000;stop-opacity:1"
         d="m 233.92984,345.43206 c -5.70142,-3.17122 -8.98498,-7.84483 -11.03132,-15.70123 -1.61082,-6.18437 -1.43149,-23.45414 0.38697,-37.26534 0.8125,-6.17095 2.01834,-15.59567 2.67965,-20.94382 0.66131,-5.34815 1.33454,-9.8621 1.49606,-10.031 0.16152,-0.16889 0.9482,0.28527 1.74819,1.00925 2.31731,2.09713 3.01368,7.40399 2.51171,19.14102 l -0.45981,10.75114 2.55234,-1.59711 c 1.4701,-0.91992 3.45437,-3.28308 4.67968,-5.57325 1.94994,-3.64454 2.09939,-4.47517 1.79213,-9.96008 -0.22745,-4.06019 -1.0102,-7.78747 -2.4348,-11.5939 -7.85293,-20.98255 -8.8367,-24.63469 -9.16767,-34.03371 -0.27551,-7.8242 -0.1116,-9.51791 1.27743,-13.19991 2.29851,-6.09282 6.55055,-10.5453 13.21695,-13.84001 3.66244,-1.81008 5.46049,-3.1054 5.21147,-3.75434 -0.20911,-0.54493 -2.13495,-3.59122 -4.27964,-6.76951 -4.35889,-6.4596 -6.62936,-11.74141 -6.60479,-15.3648 0.0281,-4.13915 2.56684,-8.16644 9.30766,-14.76485 10.6319,-10.40729 11.39281,-13.39557 6.00978,-23.60191 -3.53544,-6.70327 -3.91332,-8.36828 -2.506,-11.04197 1.1568,-2.19774 1.72332,-2.52193 7.41524,-4.24326 6.6347,-2.00645 8.09443,-3.71675 9.03101,-10.58117 0.41342,-3.03007 1.25031,-6.28159 1.85976,-7.22559 3.16516,-4.90268 9.91244,-3.04687 17.63821,4.85131 4.4495,4.5488 5.83144,7.88047 5.83144,14.05879 0,4.63883 -0.29841,5.47404 -5.60102,15.67651 -7.57163,14.56816 -11.83375,30.59914 -14.6847,55.23315 -0.65111,5.62606 -1.20267,7.96487 -1.82228,7.7271 -0.48869,-0.18753 -2.52956,-0.58705 -4.53525,-0.88782 -4.16964,-0.62528 -4.33155,-1.14044 2.01483,6.41046 8.52531,10.14339 11.10982,17.73728 11.71029,34.40771 0.58112,16.13299 -1.31726,26.6038 -10.9879,60.60566 -6.39994,22.50212 -12.73624,34.4829 -21.49134,40.63622 -3.99622,2.80865 -9.26311,3.41367 -12.76428,1.46626 z m 23.79538,-51.11876 c 2.28034,-1.2204 3.69854,-4.79208 3.69854,-9.31463 0,-4.70654 -1.26139,-8.29729 -3.66833,-10.44256 l -1.63082,-1.4535 9.15777,-9.17981 c 5.03677,-5.0489 8.96612,-9.37147 8.73188,-9.6057 -0.84081,-0.84081 -8.89739,2.77434 -13.13516,5.89401 -11.57137,8.51835 -17.78395,20.90278 -14.07943,28.06653 1.47315,2.84875 6.10556,6.80583 7.96735,6.80583 0.83552,0 2.16671,-0.34658 2.9582,-0.77017 z"
         id="path25" /><path
         style="font-variation-settings:normal;opacity:1;vector-effect:none;fill:#00ff00;fill-opacity:1;stroke:#333333;stroke-width:0.448796;stroke-linecap:butt;stroke-linejoin:miter;stroke-miterlimit:4;stroke-dasharray:none;stroke-dashoffset:0;stroke-opacity:1;-inkscape-stroke:none;paint-order:stroke fill markers;stop-color:#000000;stop-opacity:1"
         d="m 126.03692,422.37932 c 0,-0.4241 7.26783,-8.37015 16.15074,-17.65787 11.94921,-12.49377 16.60077,-16.88678 17.88067,-16.88678 1.55806,0 1.69769,0.27868 1.40541,2.80498 -0.17849,1.54273 -0.8019,8.98622 -1.38536,16.54107 -0.58346,7.55485 -1.16977,13.84503 -1.30292,13.97817 -0.13314,0.13314 -4.4082,-0.47968 -9.50014,-1.36183 l -9.25808,-1.6039 -6.06017,2.13334 c -3.33309,1.17333 -6.48091,2.28872 -6.99516,2.47863 -0.51425,0.18991 -0.93499,-0.002 -0.93499,-0.42581 z"
         id="path26" /><path
         style="opacity:0.5;fill:#ffff00;stroke:#333333;stroke-width:0.158673;stroke-dasharray:none;paint-order:stroke fill markers"
         d="m 246.75237,369.53267 c -0.10929,-0.32853 -1.20528,-5.73263 -1.20528,-5.94295 0,-0.0525 0.71403,-0.0954 1.58673,-0.0954 0.8727,0 1.58118,0.0893 1.57438,0.19835 -0.007,0.10908 -0.27799,1.49862 -0.60266,3.08786 -0.53782,2.63253 -1.04788,3.66993 -1.35317,2.75215 z"
         id="path28" /><path
         style="opacity:1;fill:#ffff00;stroke:#333333;stroke-width:0.158673;stroke-dasharray:none;paint-order:stroke fill markers"
         d="m 194.50218,423.06295 c -0.0104,-3.18057 1.64956,-96.99281 1.71751,-97.06568 0.0393,-0.0421 2.67489,-0.14522 5.85693,-0.22912 4.82269,-0.12715 6.08938,-0.0805 7.61127,0.28054 2.55422,0.60588 4.1856,1.5776 6.07034,3.61576 2.16843,2.34493 3.48706,4.73735 5.72022,10.37828 2.20279,5.56422 3.09758,7.40862 4.66947,9.62507 2.18598,3.08233 5.66103,5.31501 9.98956,6.41816 1.15182,0.29355 2.13727,0.57678 2.1899,0.62941 0.0526,0.0526 -2.06198,5.65352 -4.69911,12.44643 -2.63713,6.79292 -4.75313,12.38672 -4.70222,12.43066 0.0509,0.0439 3.4247,1.35522 7.49732,2.91393 4.07261,1.55871 7.53973,2.97264 7.70471,3.14205 0.16497,0.16941 1.2696,5.47866 2.45473,11.79832 1.18513,6.31967 2.20419,11.53971 2.26458,11.6001 0.15226,0.15226 1.89981,-0.92003 3.22161,-1.97678 2.89363,-2.31338 3.90151,-4.68325 4.47307,-10.5177 0.82239,-8.395 1.36184,-9.5373 8.50367,-18.00663 3.89655,-4.62084 4.43834,-6.90169 2.14572,-9.0332 -0.93549,-0.86976 -3.76035,-2.11609 -5.98482,-2.64051 l -1.98158,-0.46716 0.15058,-5.82709 c 0.38545,-14.91587 3.34558,-24.30757 9.52171,-30.20987 5.20057,-4.96999 12.3014,-7.51986 22.09779,-7.93519 l 3.79629,-0.16095 -0.17002,2.48776 c -0.21425,3.13502 -4.91023,95.9159 -4.91023,97.01398 v 0.81005 h -47.60202 -47.60202 z"
         id="path29" /></g></g></svg>
