00 00 00 00 00 00 00 00 
00 00 00 00 00 00 00 00 
00 00 00 00 00 00 00 00 
00 00 00 00 20 30 28 2c 
00 00 00 00 00 00 00 00 
00 00 00 00 00 00 00 00 
00 00 00 00 00 00 00 30 
00 00 00 00 00 00 00 00 
00 00 00 00 00 00 00 00 
00 00 00 00 00 00 00 00 
00 00 00 00 00 00 00 3f 
26 43 41 40 40 80 80 f8 
00 00 80 c0 e0 73 3c 00 
00 03 0c 30 c0 00 00 00 
d0 10 08 08 08 08 08 08 
00 00 00 00 00 00 00 00 
00 00 00 00 00 3f 20 40 
00 01 01 01 0f ff ff 00 
ff 01 00 00 00 f8 ff 00 
ff ff 07 00 00 00 c0 00 
fe ff ff 00 00 00 00 00 
00 f0 00 00 00 00 00 00 
04 04 04 04 04 04 02 02 
00 00 00 00 00 00 00 00 
40 40 40 80 80 60 30 1c 
00 00 00 00 00 00 00 00 
00 00 00 00 00 00 00 00 
00 00 00 00 00 00 00 00 
00 00 00 00 00 00 00 00 
00 00 00 00 00 00 00 00 
02 02 01 01 00 00 00 00 
00 00 00 00 80 80 40 20 
0e 07 01 00 00 00 00 3f 
00 80 c0 f0 7c 3e 0f ff 
00 00 00 00 00 00 80 c0 
00 00 00 00 00 00 00 00 
00 00 00 00 00 00 00 00 
00 00 00 00 00 00 00 00 
00 00 00 00 00 00 00 00 
20 10 10 08 04 04 02 02 
41 40 20 10 08 07 00 00 
ff 00 00 00 00 f0 0f 00 
f0 f8 00 00 00 00 ff 03 
00 00 00 00 00 00 c0 ff 
00 00 00 00 00 00 00 80 
00 00 00 00 00 00 00 00 
00 00 00 00 00 00 00 01 
01 05 02 14 08 50 20 40 
00 00 00 00 00 00 00 00 
00 00 00 00 00 00 00 00 
01 00 00 00 00 00 00 00 
ff ff ff 7f 3f 1f 07 00 
e0 f8 fc fc fe ff ff 7f 
00 00 00 00 00 00 00 80 
00 01 02 04 08 10 20 40 
80 00 00 00 00 00 00 00 
00 00 00 00 00 00 00 00 
00 00 00 00 00 00 00 00 
00 00 00 00 00 00 00 00 
00 00 00 00 00 00 00 00 
07 00 00 00 00 00 00 00 
c0 71 0e 00 00 00 00 00 
80 00 00 00 00 00 00 00 
00 00 00 00 00 00 00 00